<?xml version="1.0" encoding="UTF-8" standalone="no"?>
<!-- Created with Inkscape (http://www.inkscape.org/) -->
<svg
   xmlns:i="http://ns.adobe.com/AdobeIllustrator/10.0/"
   xmlns:dc="http://purl.org/dc/elements/1.1/"
   xmlns:cc="http://web.resource.org/cc/"
   xmlns:rdf="http://www.w3.org/1999/02/22-rdf-syntax-ns#"
   xmlns:svg="http://www.w3.org/2000/svg"
   xmlns="http://www.w3.org/2000/svg"
   xmlns:sodipodi="http://sodipodi.sourceforge.net/DTD/sodipodi-0.dtd"
   xmlns:inkscape="http://www.inkscape.org/namespaces/inkscape"
   width="1052.3622"
   height="744.09448"
   id="svg6222"
   sodipodi:version="0.32"
   inkscape:version="0.44.1"
   version="1.0"
   sodipodi:docbase="/home/abe/Documents"
   sodipodi:docname="debian.ch_T-Shirt_20080228-abe.svg">
  <defs
     id="defs6224" />
  <sodipodi:namedview
     id="base"
     pagecolor="#ffffff"
     bordercolor="#666666"
     borderopacity="1.0"
     gridtolerance="10000"
     guidetolerance="10"
     objecttolerance="10"
     inkscape:pageopacity="0.0"
     inkscape:pageshadow="2"
     inkscape:zoom="1.1941964"
     inkscape:cx="462.4728"
     inkscape:cy="538.06736"
     inkscape:document-units="mm"
     inkscape:current-layer="layer1"
     width="1052.3622px"
     height="744.09449px"
     showguides="true"
     inkscape:guide-bbox="true"
     inkscape:window-width="1910"
     inkscape:window-height="1174"
     inkscape:window-x="0"
     inkscape:window-y="0" />
  <metadata
     id="metadata6227">
    <rdf:RDF>
      <cc:Work
         rdf:about="">
        <dc:format>image/svg+xml</dc:format>
        <dc:type
           rdf:resource="http://purl.org/dc/dcmitype/StillImage" />
      </cc:Work>
    </rdf:RDF>
  </metadata>
  <g
     inkscape:label="Layer 1"
     inkscape:groupmode="layer"
     id="layer1"
     style="opacity:1">
    <g
       id="g10491"
       transform="matrix(0.63275,0,0,0.63275,14.27333,3.095082)">
      <path
         sodipodi:nodetypes="ccccccccccccc"
         d="M 338.11416,126.94779 L 438.12346,169.05697 L 526.28955,303.27998 L 451.28257,354.60054 L 427.59616,313.80728 L 427.59616,611.20335 L 151.40914,611.20334 L 151.40914,313.80727 L 127.72273,354.60053 L 52.715748,303.27997 L 140.88184,169.05696 L 240.89114,126.94778 L 338.11416,126.94779 z "
         style="opacity:0.98999999;fill:#d81e05;fill-opacity:1;fill-rule:evenodd;stroke:black;stroke-width:0.54723257px;stroke-linecap:butt;stroke-linejoin:miter;stroke-opacity:1"
         id="path7515" />
      <path
         id="path9499"
         style="fill:white;fill-rule:evenodd;stroke:black;stroke-width:0.55619335;stroke-linecap:butt;stroke-linejoin:miter;stroke-miterlimit:4;stroke-opacity:1"
         d="M 241.0094,126.72598 L 337.9959,126.72599 C 338.68673,158.04906 322.08663,173.22489 289.50264,173.35647 C 256.91867,173.22488 240.31857,158.04905 241.0094,126.72598 z "
         sodipodi:nodetypes="cccc" />
    </g>
    <path
       id="path2237"
       d="M 202.36744,161.27579 C 200.51588,161.4312 198.65577,161.53354 196.83617,161.7683 L 197.66965,161.88196 C 199.00873,161.39151 200.94681,161.59871 202.36744,161.27579 z M 194.25997,162.10927 C 191.24899,162.29222 187.09826,163.87748 188.38774,162.45024 C 186.84906,163.13669 184.90821,163.92041 182.85647,164.79913 L 208.88372,164.79913 C 207.62388,164.41898 206.2883,164.02606 204.33748,163.3216 L 204.60267,164.45816 C 200.78384,163.18633 200.13013,164.93647 196.0027,164.45816 C 195.75142,164.26198 197.3218,163.73737 198.61679,163.54891 C 194.9247,164.03604 195.10707,162.83859 191.49434,163.70045 C 192.38486,163.07556 193.30994,162.64049 194.25997,162.10927 z M 198.61679,163.54891 L 199.33661,163.51103 L 199.37449,163.39737 L 198.61679,163.54891 z M 199.37449,163.39737 C 200.53062,163.14388 200.78299,162.92939 197.25291,162.82909 C 198.30985,163.01866 199.54643,163.14499 199.37449,163.39737 z M 208.88372,164.79913 C 209.17302,164.88643 209.47381,164.97608 209.75508,165.06433 L 209.75508,164.79913 L 208.88372,164.79913 z M 209.75508,165.06433 L 209.75508,174.34624 C 211.31329,174.76828 212.80232,175.27701 214.14979,175.89954 C 221.16885,179.17967 228.95651,188.00264 231.16032,197.15323 L 239.19201,197.15323 C 238.99411,196.27794 238.82583,195.46836 238.81316,194.6528 C 237.17101,191.22081 238.21347,195.10617 236.88101,193.17527 C 235.13304,187.7231 238.33195,191.90217 238.54796,189.42462 C 240.09349,191.66384 241.20026,194.58191 242.03342,197.15323 L 242.14707,197.15323 L 242.14707,197.4942 C 242.68396,199.18654 243.12707,200.73891 243.39729,201.69948 C 242.86828,198.6951 242.01633,195.76386 240.97263,192.94796 C 241.77716,193.28631 239.69141,186.77348 242.03342,191.09157 C 239.5316,181.8867 231.32106,173.30555 223.77267,169.2696 C 224.69625,170.11494 225.85844,171.14898 225.43963,171.31541 C 221.68582,169.08031 222.34046,168.92602 221.80263,167.9815 C 218.74426,166.7372 218.56225,168.07959 216.53656,167.9815 C 213.37913,166.30678 211.57949,165.63675 209.75508,165.06433 z M 242.14707,197.4942 C 242.11005,197.3775 242.07181,197.27171 242.03342,197.15323 L 239.19201,197.15323 C 239.38991,198.02852 239.61742,198.96953 239.79818,200.03252 C 239.23611,199.93995 238.54451,197.69946 238.13122,198.32768 C 238.70102,201.0014 239.66841,202.36586 240.02549,202.57084 C 239.84254,203.0183 239.33763,202.1541 239.30567,203.9726 C 239.52389,208.15954 240.48507,206.38721 240.93474,206.58669 C 240.47845,208.64655 238.62263,211.07398 239.53298,214.61839 C 239.27177,213.54493 238.78438,212.49117 238.39642,211.4739 C 238.03713,214.50032 239.07408,215.08005 237.6766,218.74789 C 238.68394,215.44155 238.54974,212.46139 237.60083,213.89856 C 238.00855,218.46153 234.15862,222.00129 234.34269,224.9232 L 237.90391,224.9232 C 239.14505,222.02667 239.97209,218.97696 240.40434,215.90649 L 240.66954,215.18667 C 240.23502,218.52531 239.29602,221.8171 237.90391,224.9232 L 242.14707,224.9232 L 242.14707,197.4942 z M 234.34269,224.9232 L 234.15326,224.9232 L 234.34269,225.1884 C 234.32969,225.10212 234.34819,225.01059 234.34269,224.9232 z M 234.15326,224.9232 L 233.13035,223.52145 C 232.74254,224.0837 232.44587,224.5339 232.22111,224.9232 L 234.15326,224.9232 z M 232.22111,224.9232 L 227.94006,224.9232 C 227.90716,225.00148 227.90529,225.06207 227.86429,225.15052 C 225.67769,227.09466 221.21864,231.25089 219.79471,231.62891 C 218.75541,231.60577 220.5137,230.39578 220.74184,229.92407 C 217.81462,231.93434 218.39928,232.94609 213.92247,234.16723 L 213.77093,233.86415 C 212.48523,234.46901 211.12604,234.87282 209.75508,235.07648 L 209.75508,238.56194 C 215.51102,238.28367 221.09767,236.26242 226.12156,232.23508 C 228.34895,230.50037 230.76025,227.57808 231.4634,227.53729 C 230.53666,228.93077 231.40153,228.4768 231.08454,229.28002 C 232.5295,226.72232 230.64641,227.65064 232.22111,224.9232 z M 209.75508,238.56194 C 205.47881,238.76868 201.11184,238.01383 196.79829,236.40247 C 196.84912,236.16758 196.7535,235.91051 196.07847,235.45534 C 187.50069,228.88121 182.42237,223.27288 184.18246,210.33734 C 185.49068,209.34983 185.84019,203.96848 188.84236,202.07833 C 190.67187,198.03576 196.12862,194.32863 201.98858,194.23606 C 204.85084,194.07839 207.49417,194.81637 209.75508,195.97879 L 209.75508,174.34624 C 204.20932,172.84417 197.77786,172.60286 193.50226,173.77796 C 194.0344,173.59574 194.39366,173.41513 194.03266,173.20968 C 186.24841,173.98337 187.98985,175.92863 182.023,177.45284 L 182.023,177.94535 C 182.9748,177.90051 185.93786,176.67393 183.34898,178.21055 C 182.87427,178.34149 182.43866,178.41848 182.023,178.47575 L 182.023,197.15323 L 159.29178,197.15323 L 159.70852,197.229 C 157.95394,201.62425 155.6658,204.40835 155.3517,207.04131 C 155.01197,211.89751 153.66387,219.76085 154.32879,224.9232 L 182.023,224.9232 L 182.023,257.27731 L 209.75508,257.27731 L 209.75508,241.2518 C 202.02366,242.63377 189.88531,236.76919 185.65999,229.20425 C 186.70811,229.43239 190.28489,235.03751 192.97187,235.94785 C 191.38372,234.6749 190.17028,233.03012 189.03179,231.36372 C 191.17762,233.83025 193.75879,235.86341 196.60886,237.19806 C 196.53389,236.91398 196.64929,236.70504 196.72252,236.51613 C 196.72925,237.00835 198.72051,238.51626 200.20797,239.28176 C 203.3135,240.42969 206.73824,240.68981 209.75508,240.68352 L 209.75508,238.56194 z M 209.75508,240.68352 L 209.75508,241.2518 C 210.49959,241.11872 211.22534,240.91804 211.87666,240.64563 C 211.20951,240.67028 210.48333,240.682 209.75508,240.68352 z M 154.32879,224.9232 L 149.63101,224.9232 L 149.63101,201.09331 C 149.06082,202.83899 148.5394,204.51521 148.07771,206.01841 C 148.99577,207.39055 148.07151,214.25801 148.41868,219.77079 C 146.91097,246.99747 167.5576,273.45038 190.09258,279.5539 C 193.39562,280.73537 198.30297,280.68289 202.48109,280.80412 C 197.55134,279.3945 196.90242,280.05358 192.1005,278.37946 C 188.63654,276.74832 187.88599,274.86383 185.43268,272.73454 L 186.4177,274.47726 C 181.60586,272.77449 183.58882,272.34535 179.6741,271.10547 L 180.73489,269.77948 C 179.17539,269.66154 176.58872,267.1534 175.88557,265.76363 L 174.18073,265.80151 C 172.13079,263.27215 171.03266,261.45475 171.11201,260.04294 L 170.58162,261.02796 C 169.95672,259.95559 163.01516,251.53031 166.60365,253.48877 C 165.93687,252.87929 165.06427,252.50678 164.10322,250.76102 L 164.82304,249.92755 C 163.09601,247.70567 161.64411,244.85269 161.75433,243.90377 C 162.67569,245.14807 163.31906,245.39591 163.95168,245.60861 C 159.59059,234.78804 159.33668,245.00228 156.03363,234.58397 L 156.75346,234.54609 C 156.21784,233.73934 155.89628,232.86742 155.46535,232.00777 L 155.76844,228.97694 C 154.98345,228.06934 154.55043,226.64399 154.32879,224.9232 z M 149.63101,201.09331 C 150.0439,199.82917 150.46874,198.54479 150.99488,197.15323 L 149.63101,197.15323 L 149.63101,201.09331 z M 150.99488,197.15323 L 159.29178,197.15323 L 158.64773,197.03958 C 160.69105,193.47533 170.29205,182.73393 174.74901,183.28719 C 176.90805,180.57489 174.33764,183.25067 173.91553,182.56737 C 177.95454,178.38756 179.63623,178.80457 182.023,178.47575 L 182.023,177.94535 C 181.70573,177.9603 181.61383,177.84795 182.023,177.45284 L 182.023,165.17798 C 177.73668,167.04431 173.01393,169.34491 169.86179,172.30043 L 169.71025,171.27753 C 167.46744,173.96999 159.93031,179.30759 159.32966,182.79468 L 158.7235,182.94622 C 157.55636,184.92232 156.80787,187.1639 155.88209,189.1973 C 154.73725,191.14806 154.02337,190.71921 153.83628,190.56118 C 153.84239,190.57227 153.82543,190.57867 153.83628,190.59906 C 152.68904,192.92513 151.76965,195.10406 150.99488,197.15323 z M 182.023,165.17798 C 182.30701,165.05431 182.57703,164.91881 182.85647,164.79913 L 182.023,164.79913 L 182.023,165.17798 z M 209.75508,195.97879 L 209.75508,197.15323 L 211.72512,197.15323 C 211.11013,196.72779 210.44758,196.33482 209.75508,195.97879 z M 211.72512,197.15323 C 213.29884,198.24191 214.60056,199.50667 215.55154,200.75234 C 210.93478,196.44968 203.39501,195.13705 196.94983,198.32768 C 190.36027,201.29127 186.45407,208.52837 187.02386,215.75495 C 187.26854,215.39456 187.47422,215.62366 187.59214,214.73204 C 187.41394,227.14186 199.35296,236.62177 209.75508,235.07648 L 209.75508,224.9232 L 227.94006,224.9232 C 228.71191,223.0867 227.39212,223.89503 228.73565,221.28621 L 230.44049,220.41485 C 231.39162,217.66396 232.45269,216.11629 232.33476,212.91354 L 231.31186,215.03512 C 232.78208,210.58368 231.93815,205.73819 232.14533,201.54793 L 231.76648,201.43428 C 231.71813,200.01568 231.50299,198.5761 231.16032,197.15323 L 211.72512,197.15323 z M 192.44147,174.11893 C 192.08785,174.2477 191.76718,174.38364 191.45645,174.53567 C 191.65703,174.35803 192.03079,174.25038 192.44147,174.11893 z M 150.65391,186.84841 C 150.96251,189.7051 148.49074,190.81562 151.18431,188.93211 C 152.62807,185.67976 150.63408,188.03208 150.65391,186.84841 z M 148.45656,195.9409 C 146.74166,198.13299 147.65229,198.57924 147.47154,200.0704 C 148.09204,198.16595 148.2196,197.04301 148.45656,195.9409 z M 219.037,209.16289 C 219.28194,209.1567 219.45967,209.76644 219.34008,211.54967 C 218.983,212.98573 218.68639,210.68065 218.31718,210.48888 C 218.47532,209.80833 218.79206,209.16909 219.037,209.16289 z M 217.7489,216.51265 C 217.44581,218.3554 216.57926,220.1509 215.4,221.77872 C 215.54438,220.37903 212.10109,222.39426 216.08194,217.38402 C 215.73588,218.79583 212.37994,222.48062 216.08194,220.14965 C 216.75314,218.95275 217.48439,217.82638 217.7489,216.51265 z M 209.67931,224.1655 C 209.10181,224.71436 208.46133,225.27478 207.74716,225.83245 C 205.1616,225.43459 202.7737,224.45825 204.75422,224.43069 C 206.40518,224.58168 208.06911,224.56005 209.67931,224.1655 z M 184.67497,224.43069 C 185.13124,225.34436 185.53946,226.24535 186.22827,227.0069 L 186.83444,228.8254 C 186.00234,227.4224 185.11141,226.03648 184.67497,224.43069 z M 183.15956,227.15844 C 184.794,230.3138 185.67653,231.26466 186.87232,233.59895 C 185.21032,232.21691 184.19595,230.29011 182.89436,228.52231 L 183.15956,227.15844 z "
       style="fill:white;fill-opacity:1" />
    <g
       id="g3735"
       transform="matrix(0.63275,0,0,0.63275,1139.417,-103.6226)">
      <g
         transform="translate(-761.85,168.6569)"
         id="g3663">
        <path
           id="path3665"
           style="opacity:0.98999999;fill:#d81e05;fill-opacity:1;fill-rule:evenodd;stroke:black;stroke-width:0.54723257px;stroke-linecap:butt;stroke-linejoin:miter;stroke-opacity:1"
           d="M 338.11416,126.94779 L 438.12346,169.05697 L 526.28955,303.27998 L 451.28257,354.60054 L 427.59616,313.80728 L 427.59616,611.20335 L 151.40914,611.20334 L 151.40914,313.80727 L 127.72273,354.60053 L 52.715748,303.27997 L 140.88184,169.05696 L 240.89114,126.94778 L 338.11416,126.94779 z "
           sodipodi:nodetypes="ccccccccccccc" />
        <path
           sodipodi:nodetypes="cccc"
           d="M 241.0094,126.72598 L 337.9959,126.72599 C 338.68673,158.04906 322.08663,173.22489 289.50264,173.35647 C 256.91867,173.22488 240.31857,158.04905 241.0094,126.72598 z "
           style="fill:white;fill-rule:evenodd;stroke:black;stroke-width:0.55619335;stroke-linecap:butt;stroke-linejoin:miter;stroke-miterlimit:4;stroke-opacity:1"
           id="path3667" />
      </g>
      <g
         transform="matrix(0.33118,0,0,0.33118,-630.8004,330.9617)"
         id="g5241">
        <g
           id="g5222"
           transform="translate(144.4646,-94.00527)">
          <g
             transform="matrix(2.442857,0,0,2.442857,-1620,-843.2654)"
             id="g3671">
            <rect
               id="rect3673"
               y="562.36218"
               x="700"
               width="200"
               height="60"
               style="fill:white" />
            <rect
               id="rect3675"
               y="492.36218"
               x="770"
               width="60"
               height="200"
               style="fill:white" />
          </g>
        </g>
        <g
           style="fill:#d81e05;fill-opacity:1"
           transform="matrix(1.306951,0,0,1.306951,433.4699,417.7482)"
           id="g3677"
           i:layer="yes"
           i:dimmedPercent="50"
           i:rgbTrio="#4F008000FFFF">
          <g
             style="fill:#d81e05;fill-opacity:1"
             transform="translate(-8.834663,16.19688)"
             id="g3679">
            <path
               style="fill:#d81e05;fill-opacity:1"
               i:knockout="Off"
               d="M 51.986,57.297 C 50.189,57.322 52.326,58.223 54.672,58.584 C 55.32,58.078 55.908,57.566 56.432,57.068 C 54.971,57.426 53.484,57.434 51.986,57.297"
               id="path3681" />
            <path
               style="fill:#d81e05;fill-opacity:1"
               i:knockout="Off"
               d="M 61.631,54.893 C 62.701,53.416 63.481,51.799 63.756,50.127 C 63.516,51.319 62.869,52.348 62.26,53.434 C 58.901,55.549 61.944,52.178 62.258,50.897 C 58.646,55.443 61.762,53.623 61.631,54.893"
               id="path3683" />
            <path
               style="fill:#d81e05;fill-opacity:1"
               i:knockout="Off"
               d="M 65.191,45.629 C 65.408,42.393 64.554,43.416 64.267,44.651 C 64.602,44.825 64.867,46.932 65.191,45.629"
               id="path3685" />
            <path
               style="fill:#d81e05;fill-opacity:1"
               i:knockout="Off"
               d="M 45.172,1.399 C 46.131,1.571 47.244,1.703 47.088,1.932 C 48.137,1.702 48.375,1.49 45.172,1.399"
               id="path3687" />
            <path
               style="fill:#d81e05;fill-opacity:1"
               i:knockout="Off"
               d="M 47.088,1.932 L 46.41,2.072 L 47.041,2.016 L 47.088,1.932"
               id="path3689" />
            <path
               style="fill:#d81e05;fill-opacity:1"
               i:knockout="Off"
               d="M 76.992,46.856 C 77.099,49.762 76.142,51.172 75.279,53.668 L 73.726,54.444 C 72.455,56.912 73.849,56.011 72.939,57.974 C 70.955,59.738 66.918,63.494 65.626,63.837 C 64.683,63.816 66.265,62.724 66.472,62.296 C 63.816,64.12 64.341,65.034 60.279,66.142 L 60.16,65.878 C 50.142,70.591 36.226,61.251 36.409,48.507 C 36.302,49.316 36.105,49.114 35.883,49.441 C 35.366,42.884 38.911,36.298 44.89,33.609 C 50.738,30.714 57.594,31.902 61.783,35.806 C 59.482,32.792 54.902,29.597 49.474,29.896 C 44.157,29.98 39.183,33.359 37.523,37.027 C 34.799,38.742 34.483,43.638 33.296,44.534 C 31.699,56.271 36.3,61.342 44.083,67.307 C 45.308,68.133 44.428,68.258 44.594,68.887 C 42.008,67.676 39.64,65.848 37.693,63.61 C 38.726,65.122 39.841,66.592 41.282,67.747 C 38.844,66.921 35.587,61.839 34.636,61.632 C 38.839,69.157 51.688,74.829 58.416,72.015 C 55.303,72.13 51.348,72.079 47.85,70.786 C 46.381,70.03 44.383,68.464 44.74,68.171 C 53.922,71.601 63.407,70.769 71.352,64.4 C 73.373,62.826 75.581,60.148 76.219,60.111 C 75.258,61.556 76.383,60.806 75.645,62.082 C 77.659,58.834 74.77,60.76 77.727,56.473 L 78.819,57.977 C 78.413,55.281 82.167,52.007 81.786,47.743 C 82.647,46.439 82.747,49.146 81.833,52.146 C 83.101,48.818 82.167,48.283 82.493,45.537 C 82.845,46.46 83.307,47.441 83.544,48.415 C 82.718,45.199 84.392,42.999 84.806,41.13 C 84.398,40.949 83.531,42.552 83.333,38.753 C 83.362,37.103 83.792,37.888 83.958,37.482 C 83.634,37.296 82.784,36.031 82.267,33.605 C 82.642,33.035 83.269,35.083 83.779,35.167 C 83.451,33.238 82.886,31.767 82.863,30.287 C 81.373,27.173 82.336,30.702 81.127,28.95 C 79.541,24.003 82.443,27.802 82.639,25.554 C 85.043,29.037 86.414,34.435 87.043,36.671 C 86.563,33.945 85.787,31.304 84.84,28.749 C 85.57,29.056 83.664,23.14 85.789,27.058 C 83.519,18.706 76.074,10.902 69.225,7.24 C 70.063,8.007 71.121,8.97 70.741,9.121 C 67.335,7.093 67.934,6.935 67.446,6.078 C 64.671,4.949 64.489,6.169 62.651,6.08 C 57.421,3.306 56.413,3.601 51.6,1.863 L 51.819,2.886 C 48.354,1.732 47.782,3.324 44.037,2.89 C 43.809,2.712 45.237,2.246 46.412,2.075 C 43.062,2.517 43.219,1.415 39.941,2.197 C 40.749,1.63 41.603,1.255 42.465,0.773 C 39.733,0.939 35.943,2.363 37.113,1.068 C 32.657,3.056 24.743,5.847 20.302,10.011 L 20.162,9.078 C 18.127,11.521 11.288,16.374 10.743,19.538 L 10.199,19.665 C 9.14,21.458 8.455,23.49 7.615,25.335 C 6.23,27.695 5.585,26.243 5.782,26.613 C 3.058,32.136 1.705,36.777 0.536,40.583 C 1.369,41.828 0.556,48.078 0.871,53.08 C -0.497,77.784 18.209,101.77 38.656,107.308 C 41.653,108.38 46.11,108.339 49.901,108.449 C 45.428,107.17 44.85,107.771 40.493,106.252 C 37.35,104.772 36.661,103.082 34.435,101.15 L 35.316,102.707 C 30.95,101.162 32.777,100.795 29.225,99.67 L 30.166,98.441 C 28.751,98.334 26.418,96.056 25.78,94.795 L 24.232,94.856 C 22.372,92.561 21.381,90.907 21.453,89.626 L 20.953,90.517 C 20.386,89.544 14.11,81.91 17.366,83.687 C 16.761,83.134 15.957,82.787 15.085,81.203 L 15.748,80.445 C 14.181,78.429 12.864,75.845 12.964,74.984 C 13.8,76.113 14.38,76.324 14.954,76.517 C 10.997,66.699 10.775,75.976 7.778,66.523 L 8.412,66.472 C 7.926,65.74 7.631,64.945 7.24,64.165 L 7.516,61.415 C 4.667,58.121 6.719,47.409 7.13,41.534 C 7.415,39.145 9.508,36.602 11.1,32.614 L 10.13,32.447 C 11.984,29.213 20.716,19.459 24.76,19.961 C 26.719,17.5 24.371,19.952 23.988,19.332 C 28.291,14.879 29.644,16.186 32.548,15.385 C 35.68,13.526 29.86,16.11 31.345,14.676 C 36.759,13.293 35.182,11.532 42.245,10.83 C 42.99,11.254 40.516,11.485 39.895,12.035 C 44.406,9.828 54.17,10.33 60.512,13.26 C 67.871,16.699 76.139,26.865 76.465,36.43 L 76.836,36.53 C 76.648,40.332 77.418,44.729 76.084,48.768 L 76.992,46.856"
               id="path3691" />
            <path
               style="fill:#d81e05;fill-opacity:1"
               i:knockout="Off"
               d="M 32.372,59.764 L 32.12,61.024 C 33.301,62.628 34.238,64.366 35.746,65.62 C 34.661,63.502 33.855,62.627 32.372,59.764"
               id="path3693" />
            <path
               style="fill:#d81e05;fill-opacity:1"
               i:knockout="Off"
               d="M 35.164,59.654 C 34.539,58.963 34.169,58.131 33.755,57.302 C 34.151,58.759 34.962,60.011 35.717,61.284 L 35.164,59.654"
               id="path3695" />
            <path
               style="fill:#d81e05;fill-opacity:1"
               i:knockout="Off"
               d="M 84.568,48.916 L 84.304,49.578 C 83.82,53.016 82.775,56.418 81.173,59.572 C 82.943,56.244 84.088,52.604 84.568,48.916"
               id="path3697" />
            <path
               style="fill:#d81e05;fill-opacity:1"
               i:knockout="Off"
               d="M 45.527,0.537 C 46.742,0.092 48.514,0.293 49.803,0 C 48.123,0.141 46.451,0.225 44.8,0.438 L 45.527,0.537"
               id="path3699" />
            <path
               style="fill:#d81e05;fill-opacity:1"
               i:knockout="Off"
               d="M 2.872,23.219 C 3.152,25.811 0.922,26.817 3.366,25.108 C 4.676,22.157 2.854,24.293 2.872,23.219"
               id="path3701" />
            <path
               style="fill:#d81e05;fill-opacity:1"
               i:knockout="Off"
               d="M 0,35.215 C 0.563,33.487 0.665,32.449 0.88,31.449 C -0.676,33.438 0.164,33.862 0,35.215"
               id="path3703" />
          </g>
        </g>
      </g>
    </g>
    <g
       id="g2061"
       transform="matrix(0.63275,0,0,0.63275,343.8035,3.095082)">
      <path
         sodipodi:nodetypes="ccccccccccccc"
         d="M 338.11416,126.94779 L 438.12346,169.05697 L 526.28955,303.27998 L 451.28257,354.60054 L 427.59616,313.80728 L 427.59616,611.20335 L 151.40914,611.20334 L 151.40914,313.80727 L 127.72273,354.60053 L 52.715748,303.27997 L 140.88184,169.05696 L 240.89114,126.94778 L 338.11416,126.94779 z "
         style="opacity:0.98999999;fill:#d81e05;fill-opacity:1;fill-rule:evenodd;stroke:black;stroke-width:0.54723257px;stroke-linecap:butt;stroke-linejoin:miter;stroke-opacity:1"
         id="path2063" />
      <path
         id="path2065"
         style="fill:white;fill-rule:evenodd;stroke:black;stroke-width:0.55619335;stroke-linecap:butt;stroke-linejoin:miter;stroke-miterlimit:4;stroke-opacity:1"
         d="M 241.0094,126.72598 L 337.9959,126.72599 C 338.68673,158.04906 322.08663,173.22489 289.50264,173.35647 C 256.91867,173.22488 240.31857,158.04905 241.0094,126.72598 z "
         sodipodi:nodetypes="cccc" />
    </g>
    <g
       id="g2126"
       transform="translate(5.024299,-7.978515e-7)">
      <g
         i:rgbTrio="#4F008000FFFF"
         i:dimmedPercent="50"
         i:layer="yes"
         id="Layer_1"
         transform="matrix(0.909089,0,0,0.909089,456.2029,146.5514)"
         style="fill:white;fill-opacity:1">
        <g
           id="g2235"
           transform="translate(-8.834663,16.19688)"
           style="fill:white;fill-opacity:1">
          <path
             id="path2070"
             d="M 51.986,57.297 C 50.189,57.322 52.326,58.223 54.672,58.584 C 55.32,58.078 55.908,57.566 56.432,57.068 C 54.971,57.426 53.484,57.434 51.986,57.297"
             i:knockout="Off"
             style="fill:white;fill-opacity:1" />
          <path
             id="path2239"
             d="M 61.631,54.893 C 62.701,53.416 63.481,51.799 63.756,50.127 C 63.516,51.319 62.869,52.348 62.26,53.434 C 58.901,55.549 61.944,52.178 62.258,50.897 C 58.646,55.443 61.762,53.623 61.631,54.893"
             i:knockout="Off"
             style="fill:white;fill-opacity:1" />
          <path
             id="path2241"
             d="M 65.191,45.629 C 65.408,42.393 64.554,43.416 64.267,44.651 C 64.602,44.825 64.867,46.932 65.191,45.629"
             i:knockout="Off"
             style="fill:white;fill-opacity:1" />
          <path
             id="path2243"
             d="M 45.172,1.399 C 46.131,1.571 47.244,1.703 47.088,1.932 C 48.137,1.702 48.375,1.49 45.172,1.399"
             i:knockout="Off"
             style="fill:white;fill-opacity:1" />
          <path
             id="path2245"
             d="M 47.088,1.932 L 46.41,2.072 L 47.041,2.016 L 47.088,1.932"
             i:knockout="Off"
             style="fill:white;fill-opacity:1" />
          <path
             id="path2247"
             d="M 76.992,46.856 C 77.099,49.762 76.142,51.172 75.279,53.668 L 73.726,54.444 C 72.455,56.912 73.849,56.011 72.939,57.974 C 70.955,59.738 66.918,63.494 65.626,63.837 C 64.683,63.816 66.265,62.724 66.472,62.296 C 63.816,64.12 64.341,65.034 60.279,66.142 L 60.16,65.878 C 50.142,70.591 36.226,61.251 36.409,48.507 C 36.302,49.316 36.105,49.114 35.883,49.441 C 35.366,42.884 38.911,36.298 44.89,33.609 C 50.738,30.714 57.594,31.902 61.783,35.806 C 59.482,32.792 54.902,29.597 49.474,29.896 C 44.157,29.98 39.183,33.359 37.523,37.027 C 34.799,38.742 34.483,43.638 33.296,44.534 C 31.699,56.271 36.3,61.342 44.083,67.307 C 45.308,68.133 44.428,68.258 44.594,68.887 C 42.008,67.676 39.64,65.848 37.693,63.61 C 38.726,65.122 39.841,66.592 41.282,67.747 C 38.844,66.921 35.587,61.839 34.636,61.632 C 38.839,69.157 51.688,74.829 58.416,72.015 C 55.303,72.13 51.348,72.079 47.85,70.786 C 46.381,70.03 44.383,68.464 44.74,68.171 C 53.922,71.601 63.407,70.769 71.352,64.4 C 73.373,62.826 75.581,60.148 76.219,60.111 C 75.258,61.556 76.383,60.806 75.645,62.082 C 77.659,58.834 74.77,60.76 77.727,56.473 L 78.819,57.977 C 78.413,55.281 82.167,52.007 81.786,47.743 C 82.647,46.439 82.747,49.146 81.833,52.146 C 83.101,48.818 82.167,48.283 82.493,45.537 C 82.845,46.46 83.307,47.441 83.544,48.415 C 82.718,45.199 84.392,42.999 84.806,41.13 C 84.398,40.949 83.531,42.552 83.333,38.753 C 83.362,37.103 83.792,37.888 83.958,37.482 C 83.634,37.296 82.784,36.031 82.267,33.605 C 82.642,33.035 83.269,35.083 83.779,35.167 C 83.451,33.238 82.886,31.767 82.863,30.287 C 81.373,27.173 82.336,30.702 81.127,28.95 C 79.541,24.003 82.443,27.802 82.639,25.554 C 85.043,29.037 86.414,34.435 87.043,36.671 C 86.563,33.945 85.787,31.304 84.84,28.749 C 85.57,29.056 83.664,23.14 85.789,27.058 C 83.519,18.706 76.074,10.902 69.225,7.24 C 70.063,8.007 71.121,8.97 70.741,9.121 C 67.335,7.093 67.934,6.935 67.446,6.078 C 64.671,4.949 64.489,6.169 62.651,6.08 C 57.421,3.306 56.413,3.601 51.6,1.863 L 51.819,2.886 C 48.354,1.732 47.782,3.324 44.037,2.89 C 43.809,2.712 45.237,2.246 46.412,2.075 C 43.062,2.517 43.219,1.415 39.941,2.197 C 40.749,1.63 41.603,1.255 42.465,0.773 C 39.733,0.939 35.943,2.363 37.113,1.068 C 32.657,3.056 24.743,5.847 20.302,10.011 L 20.162,9.078 C 18.127,11.521 11.288,16.374 10.743,19.538 L 10.199,19.665 C 9.14,21.458 8.455,23.49 7.615,25.335 C 6.23,27.695 5.585,26.243 5.782,26.613 C 3.058,32.136 1.705,36.777 0.536,40.583 C 1.369,41.828 0.556,48.078 0.871,53.08 C -0.497,77.784 18.209,101.77 38.656,107.308 C 41.653,108.38 46.11,108.339 49.901,108.449 C 45.428,107.17 44.85,107.771 40.493,106.252 C 37.35,104.772 36.661,103.082 34.435,101.15 L 35.316,102.707 C 30.95,101.162 32.777,100.795 29.225,99.67 L 30.166,98.441 C 28.751,98.334 26.418,96.056 25.78,94.795 L 24.232,94.856 C 22.372,92.561 21.381,90.907 21.453,89.626 L 20.953,90.517 C 20.386,89.544 14.11,81.91 17.366,83.687 C 16.761,83.134 15.957,82.787 15.085,81.203 L 15.748,80.445 C 14.181,78.429 12.864,75.845 12.964,74.984 C 13.8,76.113 14.38,76.324 14.954,76.517 C 10.997,66.699 10.775,75.976 7.778,66.523 L 8.412,66.472 C 7.926,65.74 7.631,64.945 7.24,64.165 L 7.516,61.415 C 4.667,58.121 6.719,47.409 7.13,41.534 C 7.415,39.145 9.508,36.602 11.1,32.614 L 10.13,32.447 C 11.984,29.213 20.716,19.459 24.76,19.961 C 26.719,17.5 24.371,19.952 23.988,19.332 C 28.291,14.879 29.644,16.186 32.548,15.385 C 35.68,13.526 29.86,16.11 31.345,14.676 C 36.759,13.293 35.182,11.532 42.245,10.83 C 42.99,11.254 40.516,11.485 39.895,12.035 C 44.406,9.828 54.17,10.33 60.512,13.26 C 67.871,16.699 76.139,26.865 76.465,36.43 L 76.836,36.53 C 76.648,40.332 77.418,44.729 76.084,48.768 L 76.992,46.856"
             i:knockout="Off"
             style="fill:white;fill-opacity:1" />
          <path
             id="path2249"
             d="M 32.372,59.764 L 32.12,61.024 C 33.301,62.628 34.238,64.366 35.746,65.62 C 34.661,63.502 33.855,62.627 32.372,59.764"
             i:knockout="Off"
             style="fill:white;fill-opacity:1" />
          <path
             id="path2251"
             d="M 35.164,59.654 C 34.539,58.963 34.169,58.131 33.755,57.302 C 34.151,58.759 34.962,60.011 35.717,61.284 L 35.164,59.654"
             i:knockout="Off"
             style="fill:white;fill-opacity:1" />
          <path
             id="path2253"
             d="M 84.568,48.916 L 84.304,49.578 C 83.82,53.016 82.775,56.418 81.173,59.572 C 82.943,56.244 84.088,52.604 84.568,48.916"
             i:knockout="Off"
             style="fill:white;fill-opacity:1" />
          <path
             id="path2255"
             d="M 45.527,0.537 C 46.742,0.092 48.514,0.293 49.803,0 C 48.123,0.141 46.451,0.225 44.8,0.438 L 45.527,0.537"
             i:knockout="Off"
             style="fill:white;fill-opacity:1" />
          <path
             id="path2257"
             d="M 2.872,23.219 C 3.152,25.811 0.922,26.817 3.366,25.108 C 4.676,22.157 2.854,24.293 2.872,23.219"
             i:knockout="Off"
             style="fill:white;fill-opacity:1" />
          <path
             id="path2259"
             d="M 0,35.215 C 0.563,33.487 0.665,32.449 0.88,31.449 C -0.676,33.438 0.164,33.862 0,35.215"
             i:knockout="Off"
             style="fill:white;fill-opacity:1" />
        </g>
      </g>
      <g
         id="g2335"
         transform="matrix(0.381496,0,0,0.381496,251.4345,-26.55841)">
        <rect
           style="fill:white"
           height="60"
           width="200"
           x="700"
           y="562.36218"
           id="rect2331" />
        <rect
           style="fill:white"
           height="200"
           width="60"
           x="770"
           y="492.36218"
           id="rect2333" />
      </g>
    </g>
  </g>
</svg>
